注释：以下每条赛道在每种等级下的参数格式是：    研究所需金钱_研究所需时长_钻石购买价格,,,,,
观看一次广告减多少时间,看广告时间间隔,,,,
1800,1800,,,,
赛道Id,5,10,15,20,25
0_0,11220_3870_62,9288000_21845_243,299621088000_86758_724,1143763200000_259150_1705,47301494400000_430000_2536
0_1,11220_3870_62,9288000_21845_243,299621088000_86758_724,1143763200000_259150_1705,47301494400000_430000_2536
0_2,11220_3870_62,9288000_21845_243,299621088000_86758_724,1143763200000_259150_1705,47301494400000_430000_2536
0_3,11220_3870_62,9288000_21845_243,299621088000_86758_724,1143763200000_259150_1705,47301494400000_430000_2536
0_4,11220_3870_62,9288000_21845_243,299621088000_86758_724,1143763200000_259150_1705,47301494400000_430000_2536
1_0,11220_3870_62,9288000_21845_243,299621088000_86758_724,1143763200000_259150_1705,47301494400000_430000_2536
1_1,11220_3870_62,9288000_21845_243,299621088000_86758_724,1143763200000_259150_1705,47301494400000_430000_2536
1_2,11220_3870_62,9288000_21845_243,299621088000_86758_724,1143763200000_259150_1705,47301494400000_430000_2536
1_3,11220_3870_62,9288000_21845_243,299621088000_86758_724,1143763200000_259150_1705,47301494400000_430000_2536
1_4,11220_3870_62,9288000_21845_243,299621088000_86758_724,1143763200000_259150_1705,47301494400000_430000_2536
2_0,11220_3870_62,9288000_21845_243,299621088000_86758_724,1143763200000_259150_1705,47301494400000_430000_2536
2_1,11220_3870_62,9288000_21845_243,299621088000_86758_724,1143763200000_259150_1705,47301494400000_430000_2536
2_2,11220_3870_62,9288000_21845_243,299621088000_86758_724,1143763200000_259150_1705,47301494400000_430000_2536
2_3,11220_3870_62,9288000_21845_243,299621088000_86758_724,1143763200000_259150_1705,47301494400000_430000_2536
2_4,11220_3870_62,9288000_21845_243,299621088000_86758_724,1143763200000_259150_1705,47301494400000_430000_2536
