%YAML 1.1
%TAG !u! tag:unity3d.com,2011:
--- !u!114 &11400000
MonoBehaviour:
  m_ObjectHideFlags: 0
  m_CorrespondingSourceObject: {fileID: 0}
  m_PrefabInternal: {fileID: 0}
  m_GameObject: {fileID: 0}
  m_Enabled: 1
  m_EditorHideFlags: 0
  m_Script: {fileID: 11500000, guid: a6b194f808b1af6499c93410e504af42, type: 3}
  m_Name: zg2_Atlas
  m_EditorClassIdentifier: 
  atlasFile: {fileID: 4900000, guid: 4685f45d83c8343b7bf64ee9993f902b, type: 3}
  materials:
  - {fileID: 2100000, guid: 39a92ab6cf061424aa64bb39bd18ef39, type: 2}
