
xhc1b.png
size: 430,430
format: RGBA8888
filter: Linear,Linear
repeat: none
2
  rotate: false
  xy: 2, 2
  size: 209, 207
  orig: 209, 207
  offset: 0, 0
  index: -1
3
  rotate: false
  xy: 2, 211
  size: 231, 217
  orig: 231, 217
  offset: 0, 0
  index: -1
