%YAML 1.1
%TAG !u! tag:unity3d.com,2011:
--- !u!114 &11400000
MonoBehaviour:
  m_ObjectHideFlags: 0
  m_CorrespondingSourceObject: {fileID: 0}
  m_PrefabInternal: {fileID: 0}
  m_GameObject: {fileID: 0}
  m_Enabled: 1
  m_EditorHideFlags: 0
  m_Script: {fileID: 11500000, guid: a6b194f808b1af6499c93410e504af42, type: 3}
  m_Name: jbsj_Atlas
  m_EditorClassIdentifier: 
  atlasFile: {fileID: 4900000, guid: 64352e4181b2145d1a03c9f163fecd37, type: 3}
  materials:
  - {fileID: 2100000, guid: 60bad30ab7d494e0f840d8712ae54f99, type: 2}
